Pyrobaculum_oguniense,90.0,97.89331
Methanosarcina_siciliae,36.33333333,38.250107
Thermoproteus_tenax,85.75,92.98447
Methanotorris_formicicus,70.0,80.40553
Thermococcus_kodakarensis,75.0,90.06607
Methanosarcina_mazei,35.06666667,38.269135
Thermococcus_celericrescens,80.0,87.45026
Thermococcus_peptonophilus,81.25,90.6304
Acidiplasma_cupricumulans,55.0,48.77867
Aeropyrum_pernix,90.75,96.32969
Aciduliprofundum_boonei,70.0,72.46396
Thermoproteus_uzoniensis,85.0,97.34946
Pyrobaculum_arsenaticum,95.0,97.823814
Methanohalobium_evestigatum,50.0,39.0793
Sulfolobus_tokodaii,78.33333333,80.46321
Methanococcus_voltae,33.42857143,56.235264
Desulfurococcus_mucosus,86.5,87.457664
Staphylothermus_marinus,89.5,91.853516
Aeropyrum_camini,85.0,97.02002
Methanothermus_fervidus,81.0,54.51298
Methanosalsum_zhilinae,41.0,38.878296
Halorhabdus_tiamatea,45.0,40.632942
Methanothermobacter_marburgensis,60.83333333,42.594894
Nanoarchaeum_equitans,90.0,82.80395
Methanopyrus_kandleri,98.0,92.250244
Methanotorris_igneus,85.0,77.92968
Thermoplasma_volcanium,59.58333333,57.8638
Methanoplanus_limicola,33.5,37.807632
Haloferax_mediterranei,36.0,39.739456
Acidiplasma_aeolicum,40.0,56.48428
Thermosphaera_aggregans,85.0,83.616516
Methanosarcina_lacustris,22.5,38.575756
Acidilobus_saccharovorans,80.0,85.0933
Haloferax_volcanii,33.5,40.155178
Hyperthermus_butylicus,99.75,95.60932
Thermoplasma_acidophilum,57.33333333,57.8638
Archaeoglobus_sulfaticallidus,75.0,76.729355
Methanothermobacter_thermautotrophicus,61.80555556,42.491013
Methanococcoides_burtonii,21.0,39.378284
Methanolobus_tindarius,25.0,38.766376
Halococcus_saccharolyticus,36.0,38.8575
Thermococcus_barophilus,85.0,87.66471
Methanocella_conradii,50.0,43.319008
Pyrodictium_occultum,101.0,91.8203
Methanocaldococcus_infernus,85.0,79.62211
Methanocella_arvoryzae,45.0,41.165436
Pyrococcus_abyssi,96.5,89.56021
Archaeoglobus_profundus,85.0,78.549774
Caldisphaera_lagunensis,75.0,80.75661
Ignisphaera_aggregans,92.0,88.46349
Methanosarcina_barkeri,35.03846154,38.700558
Thermococcus_gammatolerans,88.0,86.471275
Pyrobaculum_aerophilum,99.5,89.13657
Pyrobaculum_islandicum,97.5,90.037
Methanothermococcus_okinawensis,65.0,58.796417
Methanobrevibacter_oralis,35.0,46.072437
Methanosaeta_concilii,35.0,46.799004
Pyrolobus_fumarii,103.0,89.22583
Pyrobaculum_calidifontis,91.25,90.84543
Thermococcus_thioreducens,84.0,79.5871
Archaeoglobus_fulgidus,81.5,72.29199
Geoglobus_acetivorans,80.0,71.80556
Pyrococcus_horikoshii,95.75,84.83802
Picrophilus_torridus,58.75,50.485435
Methanosarcina_thermophila,50.83333333,31.372105
Methanocaldococcus_jannaschii,81.66666667,75.71303
Halobacterium_salinarum,36.42857143,36.863235
Methanoculleus_marisnigri,34.75,41.356403
Thermofilum_pendens,88.0,81.30817
Halorubrum_tebenquichense,40.0,36.755417
Pyrococcus_furiosus,98.14285714,84.83802
Methanocaldococcus_fervens,85.0,75.84965
Thermococcus_litoralis,83.66666667,80.75356
Methanobacterium_formicicum,36.83333333,56.94764
Thermococcus_guaymasensis,88.0,87.17397
Metallosphaera_sedula,65.0,82.50174
Staphylothermus_hellenicus,85.0,92.012535
Desulfurococcus_fermentans,80.0,88.72444
Ignicoccus_islandicus,90.0,93.345695
Halosimplex_carlsbadense,40.0,38.09327
Sulfolobus_acidocaldarius,72.375,83.63074
Archaeoglobus_veneficus,75.0,81.92367
Desulfurococcus_kamchatkensis,82.0,88.57916
Sulfolobus_solfataricus,76.875,84.69039
Methanococcoides_methylutens,27.5,37.423218
Methanocaldococcus_villosus,80.0,83.55169
Thermococcus_sibiricus,78.0,86.27057
Thermococcus_chitonophagus,85.0,92.76601
Methanocaldococcus_vulcanius,80.0,82.46704
Ferroglobus_placidus,85.0,82.445305
Caldivirga_maquilingensis,83.0,91.93221
Ignicoccus_hospitalis,90.0,95.19646
